{
    "$schema": "http://schema.management.azure.com/schemas/2015-01-01/deploymentTemplate.json",
    "contentVersion": "1.0.0.0",
    "parameters": {
        "genericResourceName": {
            "value": "#{GenericResourceName}"
        },
        "location": {
            "value": "#{Location}"
        },
		"siteRegistrationPort": {
            "value": 8181
        },
		"reportingPort": {
            "value": 8807
        },
		"siteManagementPort": {
            "value": 8182
        },
		"smartsyncPort": {
            "value": 8746
        },
		"productManagementPort": {
            "value": 8160
        },
		"frontEndPort": {
            "value": 443
        },
		"technicalSetupPort": {
            "value": 8162
        },
		"certName": {
            "value": "#{AppGatewayHttpsCertificate.Name}"
        },
		"certData": {
            "value": "#{AppGatewayHttpsCertificate.RawOriginal}"
        },
		"certPassword": {
            "value": "#{AppGatewayHttpsCertificate.Password}"
        },
		"internallbIPAddress": {
            "value": "#{Octopus.Action[Post Deploy Script - SFCandNode].Output.internallbFrontendIP}"
        }
    }
}