{
    "$schema": "https://schema.management.azure.com/schemas/2015-01-01/deploymentParameters.json#",
    "contentVersion": "1.0.0.0",
    "parameters": {
        "genericResourceName": {
            "value": "#{GenericResourceName}"
        },
        "location": {
            "value": "#{Location}"
        },
        "skuName": {
            "value": "#{eventhubskuName}"
        },
        "tier": {
            "value": "#{eventhubTier}"
        },
        "capacity": {
            "value": "#{eventhubCapacity}"
        },
		"eventhubEntityName": {
            "value": "#{eventhubEntity}"
        },
        "partitionCount": {
            "value": "#{eventhubPartitionCount}"
        }
    }
}