{
    "$schema": "http://schema.management.azure.com/schemas/2015-01-01/deploymentTemplate.json",
    "contentVersion": "1.0.0.0",
    "parameters": {
        "resourceGroupName": {
            "value": "#{ResourceGroupName}"
        },
        "clusterLocation": {
            "value": "#{Location}"
        },
        "genericResourceName": {
            "value": "#{GenericResourceName}"
        },
        "nt0applicationStartPort": {
            "value": 20000
        },
        "nt0applicationEndPort": {
            "value": 30000
        },
        "nt0ephemeralStartPort": {
            "value": 49152
        },
        "nt0ephemeralEndPort": {
            "value": 65534
        },
        "fabricTcpGatewayPort": {
            "value": 19000
        },
        "fabricHttpGatewayPort": {
            "value": 19080
        },
        "reverseProxyEndpointPort": {
            "value": 19081
        },
		"technicalSetupPort": {
            "value": 8162
        },
		"smartsyncPort": {
            "value": 8746
        },
		"productManagementPort": {
            "value": 8160
        },
		"reportingPort": {
            "value": 8807
        },
		"siteManagementPort": {
            "value": 8172
        },
		"siteManagementV2Port": {
            "value": 8182
        },
		"siteRegistrationPort": {
            "value": 8181
        },
        "subnet0Name": {
            "value": "Subnet-0"
        },
        "subnet0Prefix": {
            "value": "10.0.0.0/24"
        },		
        "subnet1Name": {
            "value": "Subnet-1"
        },
        "subnet1Prefix": {
            "value": "10.0.1.0/24"
        },
        "computeLocation": {
            "value": "#{Location}"
        },
        "vmStorageAccountContainerName": {
            "value": "vhds"
        },
        "adminUserName": {
            "value": "clusteradmin"
        },
        "adminPassword": {
            "value": "#{ClusterPassword}"
        },
        "addressPrefix": {
            "value": "10.0.0.0/16"
        },
        "overProvision": {
            "value": "false"
        },
        "vmImagePublisher": {
            "value": "MicrosoftWindowsServer"
        },
        "vmImageOffer": {
            "value": "WindowsServer"
        },
        "vmImageSku": {
            "value": "2016-Datacenter-with-Containers"
        },
        "vmImageVersion": {
            "value": "latest"
        },
        "sourceVaultValue": {
            "value": "#{Octopus.Action[Post Deploy Script - Key Vault].Output.keyVaultID}"
        },
        "certificateUrlValue": {
            "value": "#{Octopus.Action[Post Deploy Script - Key Vault].Output.certificateUrl}"
        },
        "clusterProtectionLevel": {
            "value": "EncryptAndSign"
        },
        "certificateStoreValue": {
            "value": "My"
        },
        "certificateThumbprint": {
            "value": "#{Octopus.Action[Post Deploy Script - Key Vault].Output.thumbprint}"
        },
        "storageAccountType": {
            "value": "#{StorageAccountTypeTier}"
        },
        "supportLogStorageAccountType": {
            "value": "#{StorageAccountTypeTier}"
        },
        "applicationDiagnosticsStorageAccountType": {
            "value": "#{StorageAccountTypeTier}"
        },
        "nt0InstanceCount": {
            "value": "#{VMInstanceCount}"
        },
        "vmNodeType0Name": {
            "value": "#{VMScaleSetName}"
        },
        "vmNodeType0Size": {
            "value": "#{VMSize}"
        },
		"vmNodeReliabilityLevel": {
            "value": "#{ReliabilityLevel}"
        }
    }
}